Modern R with the tidyverse
…
mean(starwars$height)

## [1] NA

starwars$height means that the user wants to access the column called height from the dataset
starwars. Remember that the $ symbol is how you access elements of a named list. This is the
same for columns of datasets as you can see. This is then given as an argument to the function
mean(). But what if the user wants the average height by species? Before dplyr, a solution to
this simple problem would have required more than a single command. Now this is as easy as:

starwars %>%
  group_by(species) %>%
  summarise(mean(height))

## # A tibble: 38 x 2
##    species   `mean(height)`
##    <chr>              <dbl>
##  1 Aleena               79 
##  2 Besalisk            198 
##  3 Cerean              198 
##  4 Chagrian            196 
##  5 Clawdite            168 
##  6 Droid                NA 
##  7 Dug                 112 
##  8 Ewok                 88 
##  9 Geonosian           183 
## 10 Gungan              209.
## # ... with 28 more rows
…
4 %>% sqrt()

## [1] 2

It is equivalent to sqrt(4). Why use that though? You will see in the next examples that using
%>% makes writing and reading code, much, much easier. For example, the previous manipulation I
did could be read as “Take the starwars data, give it to the group_by() function and then
compute the mean of height”. Without the %>%, one would need to write:

summarise(group_by(starwars, species), mean(height))

## # A tibble: 38 x 2
##    species   `mean(height)`
##    <chr>              <dbl>
##  1 Aleena               79 
##  2 Besalisk            198 
##  3 Cerean              198 
##  4 Chagrian            196 
##  5 Clawdite            168 
##  6 Droid                NA 
##  7 Dug                 112 
##  8 Ewok                 88 
##  9 Geonosian           183 
## 10 Gungan              209.
## # ... with 28 more rows

as you can clearly see, it is much more difficult to read. Imagine now that I want the average height
by species, but only for males. Again, this is very easy using %>%:

starwars %>%
  filter(gender == "male") %>%
  group_by(species) %>%
  summarise(mean(height))

## # A tibble: 32 x 2
##    species   `mean(height)`
##    <chr>              <dbl>
##  1 Aleena               79 
##  2 Besalisk            198 
##  3 Cerean              198 
##  4 Chagrian            196 
##  5 Dug                 112 
##  6 Ewok                 88 
##  7 Geonosian           183 
##  8 Gungan              209.
##  9 Human                NA 
## 10 Iktotchi            188 
## # ... with 22 more rows

Again, the %>% makes the above lines of code very easy to read. Without it, one would need to write:

summarise(group_by(filter(starwars, gender == "male"), species), mean(height))

## # A tibble: 32 x 2
##    species   `mean(height)`
##    <chr>              <dbl>
##  1 Aleena               79 
##  2 Besalisk            198 
##  3 Cerean              198 
##  4 Chagrian            196 
##  5 Dug                 112 
##  6 Ewok                 88 
##  7 Geonosian           183 
##  8 Gungan              209.
##  9 Human                NA 
## 10 Iktotchi            188 
## # ... with 22 more rows
…
You could then write this data to disk using rio::export() for instance. If you need more than the
mean of the height, you can keep adding as many functions as needed:

summary_table = starwars %>%
  group_by(species) %>%
  summarise(ave_height = mean(height), var_height = var(height), n_obs = n())

print(summary_table)

## # A tibble: 38 x 4
##    species   ave_height var_height n_obs
##    <chr>          <dbl>      <dbl> <int>
##  1 Aleena           79         NA      1
##  2 Besalisk        198         NA      1
##  3 Cerean          198         NA      1
##  4 Chagrian        196         NA      1
##  5 Clawdite        168         NA      1
##  6 Droid            NA         NA      5
##  7 Dug             112         NA      1
##  8 Ewok             88         NA      1
##  9 Geonosian       183         NA      1
## 10 Gungan          209.       201.     3
## # ... with 28 more rows
…
To test for NA, one uses the function is.na() not something like species == "NA" or anything
like that.!is.na() does the opposite:

starwars %>%
  filter(!is.na(species))

## # A tibble: 82 x 13
##    name  height  mass hair_color skin_color eye_color birth_year gender
##    <chr>  <int> <dbl> <chr>      <chr>      <chr>          <dbl> <chr> 
##  1 Luke…    172    77 blond      fair       blue            19   male  
##  2 C-3PO    167    75 <NA>       gold       yellow         112   <NA>  
##  3 R2-D2     96    32 <NA>       white, bl… red             33   <NA>  
##  4 Dart…    202   136 none       white      yellow          41.9 male  
##  5 Leia…    150    49 brown      light      brown           19   female
##  6 Owen…    178   120 brown, gr… light      blue            52   male  
##  7 Beru…    165    75 brown      light      blue            47   female
##  8 R5-D4     97    32 <NA>       white, red red             NA   <NA>  
##  9 Bigg…    183    84 black      light      brown           24   male  
## 10 Obi-…    182    77 auburn, w… fair       blue-gray       57   male  
## # ... with 72 more rows, and 5 more variables: homeworld <chr>,
## #   species <chr>, films <list>, vehicles <list>, starships <list>
…
This returns a tibble with only the name, height, height_m and the gender variables.

The last thing I want to show you are the so-called scoped version of these functions. For
example, what if I am only interested in columns that contains text? Is there a way to select them
automatically? For this type of tasks, you can use select_if():

starwars %>%
  select_if(is.character)

## # A tibble: 87 x 7
##    name         hair_color   skin_color eye_color gender homeworld species
##    <chr>        <chr>        <chr>      <chr>     <chr>  <chr>     <chr>  
##  1 Luke Skywal… blond        fair       blue      male   Tatooine  Human  
##  2 C-3PO        <NA>         gold       yellow    <NA>   Tatooine  Droid  
##  3 R2-D2        <NA>         white, bl… red       <NA>   Naboo     Droid  
##  4 Darth Vader  none         white      yellow    male   Tatooine  Human  
##  5 Leia Organa  brown        light      brown     female Alderaan  Human  
##  6 Owen Lars    brown, grey  light      blue      male   Tatooine  Human  
##  7 Beru Whites… brown        light      blue      female Tatooine  Human  
##  8 R5-D4        <NA>         white, red red       <NA>   Tatooine  Droid  
##  9 Biggs Darkl… black        light      brown     male   Tatooine  Human  
## 10 Obi-Wan Ken… auburn, whi… fair       blue-gray male   Stewjon   Human  
## # ... with 77 more rows
…
starwars = starwars %>%
  rowwise() %>%
  mutate(n_films = length(films))

dplyr::rowwise() is useful when working with list-columns: columns that have lists as elements.

Let’s take a look at the characters and the number of films they have appeared in:

starwars %>%
  select(name, n_films)

## Source: local data frame [87 x 2]
## Groups: <by row>
## 
## # A tibble: 87 x 2
##    name               n_films
##    <chr>                <int>
##  1 Luke Skywalker           5
##  2 C-3PO                    6
##  3 R2-D2                    7
##  4 Darth Vader              4
##  5 Leia Organa              5
##  6 Owen Lars                3
##  7 Beru Whitesun lars       3
##  8 R5-D4                    1
##  9 Biggs Darklighter        1
## 10 Obi-Wan Kenobi           6
## # ... with 77 more rows
…
