Chapter 4 Descriptive statistics and data manipulation | Modern R with the tidyverse
…
mean(starwars$height)

## [1] NA

starwars$height means that the user wants to access the column called height from the dataset
starwars. Remember that the $ symbol is how you access elements of a named list. This is the
same for columns of datasets as you can see. This is then given as an argument to the function
mean(). But what if the user wants the average height by species? Before dplyr, a solution to
this simple problem would have required more than a single command. Now this is as easy as:

starwars %>%
  group_by(species) %>%
  summarise(mean(height))

## # A tibble: 38 x 2
##    species   `mean(height)`
##    <chr>              <dbl>
##  1 <NA>                  NA
##  2 Aleena                79
##  3 Besalisk             198
##  4 Cerean               198
##  5 Chagrian             196
##  6 Clawdite             168
##  7 Droid                 NA
##  8 Dug                  112
##  9 Ewok                  88
## 10 Geonosian            183
## # … with 28 more rows

The usefulness of the %>% (pipe operator) becomes apparent now. Without it, one would write
instead:

summarise(group_by(starwars, species), mean(height))

## # A tibble: 38 x 2
##    species   `mean(height)`
##    <chr>              <dbl>
##  1 <NA>                  NA
##  2 Aleena                79
##  3 Besalisk             198
##  4 Cerean               198
##  5 Chagrian             196
##  6 Clawdite             168
##  7 Droid                 NA
##  8 Dug                  112
##  9 Ewok                  88
## 10 Geonosian            183
## # … with 28 more rows

as you can clearly see, it is much more difficult to read. Imagine now that I want the average height
by species, but only for males. Again, this is very easy using %>%:

starwars %>%
  filter(gender == "male") %>%
  group_by(species) %>%
  summarise(mean(height))

## # A tibble: 32 x 2
##    species   `mean(height)`
##    <chr>              <dbl>
##  1 <NA>                183 
##  2 Aleena               79 
##  3 Besalisk            198 
##  4 Cerean              198 
##  5 Chagrian            196 
##  6 Dug                 112 
##  7 Ewok                 88 
##  8 Geonosian           183 
##  9 Gungan              209.
## 10 Human                NA 
## # … with 22 more rows

Again, the %>% makes the above lines of code very easy to read. Without it, one would need to write:

summarise(group_by(filter(starwars, gender == "male"), species), mean(height))

## # A tibble: 32 x 2
##    species   `mean(height)`
##    <chr>              <dbl>
##  1 <NA>                183 
##  2 Aleena               79 
##  3 Besalisk            198 
##  4 Cerean              198 
##  5 Chagrian            196 
##  6 Dug                 112 
##  7 Ewok                 88 
##  8 Geonosian           183 
##  9 Gungan              209.
## 10 Human                NA 
## # … with 22 more rows

I think you agree with me that this is not very readable. One way to make it more readable would
be to save intermediary variables:

filtered_data <- filter(starwars, gender == "male")

grouped_data <- group_by(filter(starwars, gender == "male"), species)

summarise(grouped_data, mean(height))

## # A tibble: 32 x 2
##    species   `mean(height)`
##    <chr>              <dbl>
##  1 <NA>                183 
##  2 Aleena               79 
##  3 Besalisk            198 
##  4 Cerean              198 
##  5 Chagrian            196 
##  6 Dug                 112 
##  7 Ewok                 88 
##  8 Geonosian           183 
##  9 Gungan              209.
## 10 Human                NA 
## # … with 22 more rows
…
You could then write this data to disk using rio::export() for instance. If you need more than the
mean of the height, you can keep adding as many functions as needed:

summary_table <- starwars %>%
  group_by(species) %>%
  summarise(ave_height = mean(height), var_height = var(height), n_obs = n())

print(summary_table)

## # A tibble: 38 x 4
##    species   ave_height var_height n_obs
##    <chr>          <dbl>      <dbl> <int>
##  1 <NA>              NA         NA     5
##  2 Aleena            79         NA     1
##  3 Besalisk         198         NA     1
##  4 Cerean           198         NA     1
##  5 Chagrian         196         NA     1
##  6 Clawdite         168         NA     1
##  7 Droid             NA         NA     5
##  8 Dug              112         NA     1
##  9 Ewok              88         NA     1
## 10 Geonosian        183         NA     1
## # … with 28 more rows
…
To test for NA, one uses the function is.na() not something like species == "NA" or anything
like that. !is.na() does the opposite:

starwars %>%
  filter(!is.na(species))

## # A tibble: 82 x 13
##    name  height  mass hair_color skin_color eye_color birth_year gender
##    <chr>  <int> <dbl> <chr>      <chr>      <chr>          <dbl> <chr> 
##  1 Luke…    172    77 blond      fair       blue            19   male  
##  2 C-3PO    167    75 <NA>       gold       yellow         112   <NA>  
##  3 R2-D2     96    32 <NA>       white, bl… red             33   <NA>  
##  4 Dart…    202   136 none       white      yellow          41.9 male  
##  5 Leia…    150    49 brown      light      brown           19   female
##  6 Owen…    178   120 brown, gr… light      blue            52   male  
##  7 Beru…    165    75 brown      light      blue            47   female
##  8 R5-D4     97    32 <NA>       white, red red             NA   <NA>  
##  9 Bigg…    183    84 black      light      brown           24   male  
## 10 Obi-…    182    77 auburn, w… fair       blue-gray       57   male  
## # … with 72 more rows, and 5 more variables: homeworld <chr>,
## #   species <chr>, films <list>, vehicles <list>, starships <list>
…
You can also filter more than just one year, by using the %in% operator:

gasoline %>% filter(year %in% seq(1969, 1973))

## # A tibble: 90 x 6
##    country  year lgaspcar lincomep  lrpmg lcarpcap
##    <fct>   <int>    <dbl>    <dbl>  <dbl>    <dbl>
##  1 AUSTRIA  1969     4.05    -6.15 -0.559    -8.79
##  2 AUSTRIA  1970     4.08    -6.08 -0.597    -8.73
##  3 AUSTRIA  1971     4.11    -6.04 -0.654    -8.64
##  4 AUSTRIA  1972     4.13    -5.98 -0.596    -8.54
##  5 AUSTRIA  1973     4.20    -5.90 -0.594    -8.49
##  6 BELGIUM  1969     3.85    -5.86 -0.355    -8.52
##  7 BELGIUM  1970     3.87    -5.80 -0.378    -8.45
##  8 BELGIUM  1971     3.87    -5.76 -0.399    -8.41
##  9 BELGIUM  1972     3.91    -5.71 -0.311    -8.36
## 10 BELGIUM  1973     3.90    -5.64 -0.373    -8.31
## # … with 80 more rows

It is also possible use between(), a helper function:

gasoline %>% filter(between(year, 1969, 1973))

## # A tibble: 90 x 6
##    country  year lgaspcar lincomep  lrpmg lcarpcap
##    <fct>   <int>    <dbl>    <dbl>  <dbl>    <dbl>
##  1 AUSTRIA  1969     4.05    -6.15 -0.559    -8.79
##  2 AUSTRIA  1970     4.08    -6.08 -0.597    -8.73
##  3 AUSTRIA  1971     4.11    -6.04 -0.654    -8.64
##  4 AUSTRIA  1972     4.13    -5.98 -0.596    -8.54
##  5 AUSTRIA  1973     4.20    -5.90 -0.594    -8.49
##  6 BELGIUM  1969     3.85    -5.86 -0.355    -8.52
##  7 BELGIUM  1970     3.87    -5.80 -0.378    -8.45
##  8 BELGIUM  1971     3.87    -5.76 -0.399    -8.41
##  9 BELGIUM  1972     3.91    -5.71 -0.311    -8.36
## 10 BELGIUM  1973     3.90    -5.64 -0.373    -8.31
## # … with 80 more rows

To select non-consecutive years:

gasoline %>% filter(year %in% c(1969, 1973, 1977))

## # A tibble: 54 x 6
##    country  year lgaspcar lincomep  lrpmg lcarpcap
##    <fct>   <int>    <dbl>    <dbl>  <dbl>    <dbl>
##  1 AUSTRIA  1969     4.05    -6.15 -0.559    -8.79
##  2 AUSTRIA  1973     4.20    -5.90 -0.594    -8.49
##  3 AUSTRIA  1977     3.93    -5.83 -0.422    -8.25
##  4 BELGIUM  1969     3.85    -5.86 -0.355    -8.52
##  5 BELGIUM  1973     3.90    -5.64 -0.373    -8.31
##  6 BELGIUM  1977     3.85    -5.56 -0.432    -8.14
##  7 CANADA   1969     4.86    -5.56 -1.04     -8.10
##  8 CANADA   1973     4.90    -5.41 -1.13     -7.94
##  9 CANADA   1977     4.81    -5.34 -1.07     -7.77
## 10 DENMARK  1969     4.17    -5.72 -0.407    -8.47
## # … with 44 more rows

%in% tests if an object is part of a set.

4.3.3 Select columns with select()

While filter() allows you to keep or discard rows of data, select()
allows you to keep or discard entire columns. To keep columns:

gasoline %>% select(country, year, lrpmg)

## # A tibble: 342 x 3
##    country  year  lrpmg
##    <fct>   <int>  <dbl>
##  1 AUSTRIA  1960 -0.335
##  2 AUSTRIA  1961 -0.351
##  3 AUSTRIA  1962 -0.380
##  4 AUSTRIA  1963 -0.414
##  5 AUSTRIA  1964 -0.445
##  6 AUSTRIA  1965 -0.497
##  7 AUSTRIA  1966 -0.467
##  8 AUSTRIA  1967 -0.506
##  9 AUSTRIA  1968 -0.522
## 10 AUSTRIA  1969 -0.559
## # … with 332 more rows

To discard them:

gasoline %>% select(-country, -year, -lrpmg)

## # A tibble: 342 x 3
##    lgaspcar lincomep lcarpcap
##       <dbl>    <dbl>    <dbl>
##  1     4.17    -6.47    -9.77
##  2     4.10    -6.43    -9.61
##  3     4.07    -6.41    -9.46
##  4     4.06    -6.37    -9.34
##  5     4.04    -6.32    -9.24
##  6     4.03    -6.29    -9.12
##  7     4.05    -6.25    -9.02
##  8     4.05    -6.23    -8.93
##  9     4.05    -6.21    -8.85
## 10     4.05    -6.15    -8.79
## # … with 332 more rows

To rename them:

gasoline %>% select(country, date = year, lrpmg)

## # A tibble: 342 x 3
##    country  date  lrpmg
##    <fct>   <int>  <dbl>
##  1 AUSTRIA  1960 -0.335
##  2 AUSTRIA  1961 -0.351
##  3 AUSTRIA  1962 -0.380
##  4 AUSTRIA  1963 -0.414
##  5 AUSTRIA  1964 -0.445
##  6 AUSTRIA  1965 -0.497
##  7 AUSTRIA  1966 -0.467
##  8 AUSTRIA  1967 -0.506
##  9 AUSTRIA  1968 -0.522
## 10 AUSTRIA  1969 -0.559
## # … with 332 more rows

There’s also rename():

gasoline %>% rename(date = year)

## # A tibble: 342 x 6
##    country  date lgaspcar lincomep  lrpmg lcarpcap
##    <fct>   <int>    <dbl>    <dbl>  <dbl>    <dbl>
##  1 AUSTRIA  1960     4.17    -6.47 -0.335    -9.77
##  2 AUSTRIA  1961     4.10    -6.43 -0.351    -9.61
##  3 AUSTRIA  1962     4.07    -6.41 -0.380    -9.46
##  4 AUSTRIA  1963     4.06    -6.37 -0.414    -9.34
##  5 AUSTRIA  1964     4.04    -6.32 -0.445    -9.24
##  6 AUSTRIA  1965     4.03    -6.29 -0.497    -9.12
##  7 AUSTRIA  1966     4.05    -6.25 -0.467    -9.02
##  8 AUSTRIA  1967     4.05    -6.23 -0.506    -8.93
##  9 AUSTRIA  1968     4.05    -6.21 -0.522    -8.85
## 10 AUSTRIA  1969     4.05    -6.15 -0.559    -8.79
## # … with 332 more rows

rename() does not do any kind of selection, but just renames.

You can also use select() to re-order columns:

gasoline %>% select(year, country, lrpmg, everything())

## # A tibble: 342 x 6
##     year country  lrpmg lgaspcar lincomep lcarpcap
##    <int> <fct>    <dbl>    <dbl>    <dbl>    <dbl>
##  1  1960 AUSTRIA -0.335     4.17    -6.47    -9.77
##  2  1961 AUSTRIA -0.351     4.10    -6.43    -9.61
##  3  1962 AUSTRIA -0.380     4.07    -6.41    -9.46
##  4  1963 AUSTRIA -0.414     4.06    -6.37    -9.34
##  5  1964 AUSTRIA -0.445     4.04    -6.32    -9.24
##  6  1965 AUSTRIA -0.497     4.03    -6.29    -9.12
##  7  1966 AUSTRIA -0.467     4.05    -6.25    -9.02
##  8  1967 AUSTRIA -0.506     4.05    -6.23    -8.93
##  9  1968 AUSTRIA -0.522     4.05    -6.21    -8.85
## 10  1969 AUSTRIA -0.559     4.05    -6.15    -8.79
## # … with 332 more rows

everything() is a helper function, and there’s also starts_with(),
and ends_with(). For example, what if we are only interested
in columns whose name start with “l”?

gasoline %>% select(starts_with("l"))

## # A tibble: 342 x 4
##    lgaspcar lincomep  lrpmg lcarpcap
##       <dbl>    <dbl>  <dbl>    <dbl>
##  1     4.17    -6.47 -0.335    -9.77
##  2     4.10    -6.43 -0.351    -9.61
##  3     4.07    -6.41 -0.380    -9.46
##  4     4.06    -6.37 -0.414    -9.34
##  5     4.04    -6.32 -0.445    -9.24
##  6     4.03    -6.29 -0.497    -9.12
##  7     4.05    -6.25 -0.467    -9.02
##  8     4.05    -6.23 -0.506    -8.93
##  9     4.05    -6.21 -0.522    -8.85
## 10     4.05    -6.15 -0.559    -8.79
## # … with 332 more rows

ends_with() works in a similar fashion. There is also contains():

gasoline %>% select(country, year, contains("car"))

## # A tibble: 342 x 4
##    country  year lgaspcar lcarpcap
##    <fct>   <int>    <dbl>    <dbl>
##  1 AUSTRIA  1960     4.17    -9.77
##  2 AUSTRIA  1961     4.10    -9.61
##  3 AUSTRIA  1962     4.07    -9.46
##  4 AUSTRIA  1963     4.06    -9.34
##  5 AUSTRIA  1964     4.04    -9.24
##  6 AUSTRIA  1965     4.03    -9.12
##  7 AUSTRIA  1966     4.05    -9.02
##  8 AUSTRIA  1967     4.05    -8.93
##  9 AUSTRIA  1968     4.05    -8.85
## 10 AUSTRIA  1969     4.05    -8.79
## # … with 332 more rows

Another verb, similar to select(), is pull(). Let’s compare the two:

gasoline %>% select(lrpmg)

## # A tibble: 342 x 1
##     lrpmg
##     <dbl>
##  1 -0.335
##  2 -0.351
##  3 -0.380
##  4 -0.414
##  5 -0.445
##  6 -0.497
##  7 -0.467
##  8 -0.506
##  9 -0.522
## 10 -0.559
## # … with 332 more rows
…
pull(), unlike select(), does not return a tibble, but only the column you want.

4.3.4 Group the observations of your dataset with group_by()

group_by() is a very useful verb; as the name implies, it allows you to create groups and then,
for example, compute descriptive statistics by groups. For example, let’s group our data by
country:

gasoline %>% group_by(country)

## # A tibble: 342 x 6
## # Groups:   country [18]
##    country  year lgaspcar lincomep  lrpmg lcarpcap
##    <fct>   <int>    <dbl>    <dbl>  <dbl>    <dbl>
##  1 AUSTRIA  1960     4.17    -6.47 -0.335    -9.77
##  2 AUSTRIA  1961     4.10    -6.43 -0.351    -9.61
##  3 AUSTRIA  1962     4.07    -6.41 -0.380    -9.46
##  4 AUSTRIA  1963     4.06    -6.37 -0.414    -9.34
##  5 AUSTRIA  1964     4.04    -6.32 -0.445    -9.24
##  6 AUSTRIA  1965     4.03    -6.29 -0.497    -9.12
##  7 AUSTRIA  1966     4.05    -6.25 -0.467    -9.02
##  8 AUSTRIA  1967     4.05    -6.23 -0.506    -8.93
##  9 AUSTRIA  1968     4.05    -6.21 -0.522    -8.85
## 10 AUSTRIA  1969     4.05    -6.15 -0.559    -8.79
## # … with 332 more rows

It looks like nothing much happened, but if you look at the second line of the output you can read
the following:

## # Groups:   country [18]

this means that the data is grouped, and every computation you will do now will take these groups
into account. It is also possible to group by more than one variable:

gasoline %>% group_by(country, year)

## # A tibble: 342 x 6
## # Groups:   country, year [342]
##    country  year lgaspcar lincomep  lrpmg lcarpcap
##    <fct>   <int>    <dbl>    <dbl>  <dbl>    <dbl>
##  1 AUSTRIA  1960     4.17    -6.47 -0.335    -9.77
##  2 AUSTRIA  1961     4.10    -6.43 -0.351    -9.61
##  3 AUSTRIA  1962     4.07    -6.41 -0.380    -9.46
##  4 AUSTRIA  1963     4.06    -6.37 -0.414    -9.34
##  5 AUSTRIA  1964     4.04    -6.32 -0.445    -9.24
##  6 AUSTRIA  1965     4.03    -6.29 -0.497    -9.12
##  7 AUSTRIA  1966     4.05    -6.25 -0.467    -9.02
##  8 AUSTRIA  1967     4.05    -6.23 -0.506    -8.93
##  9 AUSTRIA  1968     4.05    -6.21 -0.522    -8.85
## 10 AUSTRIA  1969     4.05    -6.15 -0.559    -8.79
## # … with 332 more rows

and so on. You can then also ungroup:

gasoline %>% group_by(country, year) %>% ungroup()

## # A tibble: 342 x 6
##    country  year lgaspcar lincomep  lrpmg lcarpcap
##    <fct>   <int>    <dbl>    <dbl>  <dbl>    <dbl>
##  1 AUSTRIA  1960     4.17    -6.47 -0.335    -9.77
##  2 AUSTRIA  1961     4.10    -6.43 -0.351    -9.61
##  3 AUSTRIA  1962     4.07    -6.41 -0.380    -9.46
##  4 AUSTRIA  1963     4.06    -6.37 -0.414    -9.34
##  5 AUSTRIA  1964     4.04    -6.32 -0.445    -9.24
##  6 AUSTRIA  1965     4.03    -6.29 -0.497    -9.12
##  7 AUSTRIA  1966     4.05    -6.25 -0.467    -9.02
##  8 AUSTRIA  1967     4.05    -6.23 -0.506    -8.93
##  9 AUSTRIA  1968     4.05    -6.21 -0.522    -8.85
## 10 AUSTRIA  1969     4.05    -6.15 -0.559    -8.79
## # … with 332 more rows
…
Because the output of dplyr verbs is a tibble, it is possible to continue working with it. This
is one shortcoming of using the base summary() function. The object returned by that function
is not very easy to manipulate.

4.3.6 Adding columns with mutate() and transmute()

mutate() adds a column to the tibble, which can contain any transformation of any other
variable:

gasoline %>%
  group_by(country) %>%
  mutate(n())

## # A tibble: 342 x 7
## # Groups:   country [18]
##    country  year lgaspcar lincomep  lrpmg lcarpcap `n()`
##    <fct>   <int>    <dbl>    <dbl>  <dbl>    <dbl> <int>
##  1 AUSTRIA  1960     4.17    -6.47 -0.335    -9.77    19
##  2 AUSTRIA  1961     4.10    -6.43 -0.351    -9.61    19
##  3 AUSTRIA  1962     4.07    -6.41 -0.380    -9.46    19
##  4 AUSTRIA  1963     4.06    -6.37 -0.414    -9.34    19
##  5 AUSTRIA  1964     4.04    -6.32 -0.445    -9.24    19
##  6 AUSTRIA  1965     4.03    -6.29 -0.497    -9.12    19
##  7 AUSTRIA  1966     4.05    -6.25 -0.467    -9.02    19
##  8 AUSTRIA  1967     4.05    -6.23 -0.506    -8.93    19
##  9 AUSTRIA  1968     4.05    -6.21 -0.522    -8.85    19
## 10 AUSTRIA  1969     4.05    -6.15 -0.559    -8.79    19
## # … with 332 more rows

Using mutate() I’ve added a column that counts how many times the country appears in the tibble,
using n(), another dplyr function. There’s also count() and tally(), which we are going to
see further down. It is also possible to rename the column on the fly:

gasoline %>%
  group_by(country) %>%
  mutate(count = n())

## # A tibble: 342 x 7
## # Groups:   country [18]
##    country  year lgaspcar lincomep  lrpmg lcarpcap count
##    <fct>   <int>    <dbl>    <dbl>  <dbl>    <dbl> <int>
##  1 AUSTRIA  1960     4.17    -6.47 -0.335    -9.77    19
##  2 AUSTRIA  1961     4.10    -6.43 -0.351    -9.61    19
##  3 AUSTRIA  1962     4.07    -6.41 -0.380    -9.46    19
##  4 AUSTRIA  1963     4.06    -6.37 -0.414    -9.34    19
##  5 AUSTRIA  1964     4.04    -6.32 -0.445    -9.24    19
##  6 AUSTRIA  1965     4.03    -6.29 -0.497    -9.12    19
##  7 AUSTRIA  1966     4.05    -6.25 -0.467    -9.02    19
##  8 AUSTRIA  1967     4.05    -6.23 -0.506    -8.93    19
##  9 AUSTRIA  1968     4.05    -6.21 -0.522    -8.85    19
## 10 AUSTRIA  1969     4.05    -6.15 -0.559    -8.79    19
## # … with 332 more rows

It is possible to do any arbitrary operation:

gasoline %>%
  group_by(country) %>%
  mutate(spam = exp(lgaspcar + lincomep))

## # A tibble: 342 x 7
## # Groups:   country [18]
##    country  year lgaspcar lincomep  lrpmg lcarpcap   spam
##    <fct>   <int>    <dbl>    <dbl>  <dbl>    <dbl>  <dbl>
##  1 AUSTRIA  1960     4.17    -6.47 -0.335    -9.77 0.100 
##  2 AUSTRIA  1961     4.10    -6.43 -0.351    -9.61 0.0978
##  3 AUSTRIA  1962     4.07    -6.41 -0.380    -9.46 0.0969
##  4 AUSTRIA  1963     4.06    -6.37 -0.414    -9.34 0.0991
##  5 AUSTRIA  1964     4.04    -6.32 -0.445    -9.24 0.102 
##  6 AUSTRIA  1965     4.03    -6.29 -0.497    -9.12 0.104 
##  7 AUSTRIA  1966     4.05    -6.25 -0.467    -9.02 0.110 
##  8 AUSTRIA  1967     4.05    -6.23 -0.506    -8.93 0.113 
##  9 AUSTRIA  1968     4.05    -6.21 -0.522    -8.85 0.115 
## 10 AUSTRIA  1969     4.05    -6.15 -0.559    -8.79 0.122 
## # … with 332 more rows

transmute() is the same as mutate(), but only returns the created variable:

gasoline %>%
  group_by(country) %>%
  transmute(spam = exp(lgaspcar + lincomep))

## # A tibble: 342 x 2
## # Groups:   country [18]
##    country   spam
##    <fct>    <dbl>
##  1 AUSTRIA 0.100 
##  2 AUSTRIA 0.0978
##  3 AUSTRIA 0.0969
##  4 AUSTRIA 0.0991
##  5 AUSTRIA 0.102 
##  6 AUSTRIA 0.104 
##  7 AUSTRIA 0.110 
##  8 AUSTRIA 0.113 
##  9 AUSTRIA 0.115 
## 10 AUSTRIA 0.122 
## # … with 332 more rows
…
