Chapter 6 Statistical models | Modern R with the tidyverse
…
First, let’s split the training data again, using the mc_cv() function from {rsample} package.
This function implements Monte Carlo cross-validation:

validation_data <- mc_cv(housing_train, prop = 0.9, times = 30)

What does validation_data look like?

validation_data

## # Monte Carlo cross-validation (0.9/0.1) with 30 resamples  
## # A tibble: 30 × 2
##    splits           id        
##    <list>           <chr>     
##  1 <split [409/46]> Resample01
##  2 <split [409/46]> Resample02
##  3 <split [409/46]> Resample03
##  4 <split [409/46]> Resample04
##  5 <split [409/46]> Resample05
##  6 <split [409/46]> Resample06
##  7 <split [409/46]> Resample07
##  8 <split [409/46]> Resample08
##  9 <split [409/46]> Resample09
## 10 <split [409/46]> Resample10
## # … with 20 more rows
…
